﻿{
  "Data": {
    "ContactsContextConnection": "Server=borna-server.database.windows.net;Database=ContactList.NewDb;User ID=Borna;Password=Password1996;Trusted_Connection=False;Encrypt=True;"
    //"ContactsContextConnection": "Server=(localdb)\\mssqllocaldb;Database=ContactList.NewDb;Trusted_Connection=True;"
  }
}
